{
	"author" : "Andrea Agostini and Daniele Ghisi",
	"authors" : [  ],
	"description" : "bach: automated composer's helper - a library for real-time computer-assisted composition",
	"displayname" : "",
	"extends" : "",
	"extensible" : 0,
	"homepatcher" : "bach.overview.maxpat",
	"max_version_max" : "none",
	"max_version_min" : "6.1",
	"name" : "bach",
	"os" : 	{
		"macintosh" : 		{
			"platform" : [ "ia32", "x64" ],
			"min_version" : "10.7.x"
		}
,
		"windows" : 		{
			"platform" : [ "ia32", "x64" ],
			"min_version" : "none"
		}

	}
,
	"package_extra" : 	{

	}
,
	"tags" : [ "computer-assisted composition", "composition", "notation", "score", "roll", "generation", "symbolic composition", "llll" ],
	"version" : "0.7.9",
	"website" : "http://www.bachproject.net",
	"filelist" : 	{
		"extensions" : [ "bach.mxe", "bach.mxe64", "bach.mxo" ],
		"externals" : [ "bach.adj.mxe", "bach.adj.mxe64", "bach.adj.mxo", "bach.append.mxe", "bach.append.mxe64", "bach.append.mxo", "bach.args.mxe", "bach.args.mxe64", "bach.args.mxo", "bach.arithmser.mxe", "bach.arithmser.mxe64", "bach.arithmser.mxo", "bach.bachtree2omtree.mxe", "bach.bachtree2omtree.mxe64", "bach.bachtree2omtree.mxo", "bach.beatbox.mxe", "bach.beatbox.mxe64", "bach.beatbox.mxo", "bach.beatunbox.mxe", "bach.beatunbox.mxe64", "bach.beatunbox.mxo", "bach.cartesianprod.mxe", "bach.cartesianprod.mxe64", "bach.cartesianprod.mxo", "bach.circle.mxe", "bach.circle.mxe64", "bach.circle.mxo", "bach.collect.mxe", "bach.collect.mxe64", "bach.collect.mxo", "bach.comb.mxe", "bach.comb.mxe64", "bach.comb.mxo", "bach.constraints.mxe", "bach.constraints.mxe64", "bach.constraints.mxo", "bach.contains.mxe", "bach.contains.mxe64", "bach.contains.mxo", "bach.decode.mxe", "bach.decode.mxe64", "bach.decode.mxo", "bach.defer.mxe", "bach.defer.mxe64", "bach.defer.mxo", "bach.deferlow.mxe", "bach.deferlow.mxe64", "bach.deferlow.mxo", "bach.delace.mxe", "bach.delace.mxe64", "bach.delace.mxo", "bach.depth.mxe", "bach.depth.mxe64", "bach.depth.mxo", "bach.derive.mxe", "bach.derive.mxe64", "bach.derive.mxo", "bach.diag.mxe", "bach.diag.mxe64", "bach.diag.mxo", "bach.dict2llll.mxe", "bach.dict2llll.mxe64", "bach.dict2llll.mxo", "bach.diff.mxe", "bach.diff.mxe64", "bach.diff.mxo", "bach.eig.mxe", "bach.eig.mxe64", "bach.eig.mxo", "bach.embed.mxe", "bach.embed.mxe64", "bach.embed.mxo", "bach.encode.mxe", "bach.encode.mxe64", "bach.encode.mxo", "bach.eq.mxe", "bach.eq.mxe64", "bach.eq.mxo", "bach.expr.mxe", "bach.expr.mxe64", "bach.expr.mxo", "bach.extractbasis.mxe", "bach.extractbasis.mxe64", "bach.extractbasis.mxo", "bach.factorize.mxe", "bach.factorize.mxe64", "bach.factorize.mxo", "bach.fft.mxe", "bach.fft.mxe64", "bach.fft.mxo", "bach.find.mxe", "bach.find.mxe64", "bach.find.mxo", "bach.flat.mxe", "bach.flat.mxe64", "bach.flat.mxo", "bach.float2rat.mxe", "bach.float2rat.mxe64", "bach.float2rat.mxo", "bach.gausselim.mxe", "bach.gausselim.mxe64", "bach.gausselim.mxo", "bach.geomser.mxe", "bach.geomser.mxe64", "bach.geomser.mxo", "bach.geq.mxe", "bach.geq.mxe64", "bach.geq.mxo", "bach.graph.mxe", "bach.graph.mxe64", "bach.graph.mxo", "bach.group.mxe", "bach.group.mxe64", "bach.group.mxo", "bach.gt.mxe", "bach.gt.mxe64", "bach.gt.mxo", "bach.hypercomment.mxe", "bach.hypercomment.mxe64", "bach.hypercomment.mxo", "bach.insert.mxe", "bach.insert.mxe64", "bach.insert.mxo", "bach.integrate.mxe", "bach.integrate.mxe64", "bach.integrate.mxo", "bach.intersection.mxe", "bach.intersection.mxe64", "bach.intersection.mxo", "bach.is.mxe", "bach.is.mxe64", "bach.is.mxo", "bach.iter.mxe", "bach.iter.mxe64", "bach.iter.mxo", "bach.ivec.mxe", "bach.ivec.mxe64", "bach.ivec.mxo", "bach.keys.mxe", "bach.keys.mxe64", "bach.keys.mxo", "bach.lace.mxe", "bach.lace.mxe64", "bach.lace.mxo", "bach.length.mxe", "bach.length.mxe64", "bach.length.mxo", "bach.leq.mxe", "bach.leq.mxe64", "bach.leq.mxo", "bach.linearsolve.mxe", "bach.linearsolve.mxe64", "bach.linearsolve.mxo", "bach.llll2dict.mxe", "bach.llll2dict.mxe64", "bach.llll2dict.mxo", "bach.lt.mxe", "bach.lt.mxe64", "bach.lt.mxo", "bach.mapelem.mxe", "bach.mapelem.mxe64", "bach.mapelem.mxo", "bach.mc2n.mxe", "bach.mc2n.mxe64", "bach.mc2n.mxo", "bach.mdelace.mxe", "bach.mdelace.mxe64", "bach.mdelace.mxo", "bach.minfo.mxe", "bach.minfo.mxe64", "bach.minfo.mxo", "bach.minmax.mxe", "bach.minmax.mxe64", "bach.minmax.mxo", "bach.msort.mxe", "bach.msort.mxe64", "bach.msort.mxo", "bach.mtimes.mxe", "bach.mtimes.mxe64", "bach.mtimes.mxo", "bach.n2mc.mxe", "bach.n2mc.mxe64", "bach.n2mc.mxo", "bach.neq.mxe", "bach.neq.mxe64", "bach.neq.mxo", "bach.neuralnet.mxe", "bach.neuralnet.mxe64", "bach.neuralnet.mxo", "bach.nth.mxe", "bach.nth.mxe64", "bach.nth.mxo", "bach.omtree2bachtree.mxe", "bach.omtree2bachtree.mxe64", "bach.omtree2bachtree.mxo", "bach.oneperm.mxe", "bach.oneperm.mxe64", "bach.oneperm.mxo", "bach.pack.mxe", "bach.pack.mxe64", "bach.pack.mxo", "bach.perm.mxe", "bach.perm.mxe64", "bach.perm.mxo", "bach.pick.mxe", "bach.pick.mxe64", "bach.pick.mxo", "bach.pipe.mxe", "bach.pipe.mxe64", "bach.pipe.mxo", "bach.portal.mxe", "bach.portal.mxe64", "bach.portal.mxo", "bach.poset.mxe", "bach.poset.mxe64", "bach.poset.mxo", "bach.post.mxe", "bach.post.mxe64", "bach.post.mxo", "bach.prime.mxe", "bach.prime.mxe64", "bach.prime.mxo", "bach.primeform.mxe", "bach.primeform.mxe64", "bach.primeform.mxo", "bach.primeser.mxe", "bach.primeser.mxe64", "bach.primeser.mxo", "bach.print.mxe", "bach.print.mxe64", "bach.print.mxo", "bach.pv.mxe", "bach.pv.mxe64", "bach.pv.mxo", "bach.quantize.mxe", "bach.quantize.mxe64", "bach.quantize.mxo", "bach.ratnum.mxe", "bach.ratnum.mxe64", "bach.ratnum.mxo", "bach.read.mxe", "bach.read.mxe64", "bach.read.mxo", "bach.readsdif.mxe", "bach.readsdif.mxe64", "bach.readsdif.mxo", "bach.reducefunction.mxe", "bach.reducefunction.mxe64", "bach.reducefunction.mxo", "bach.reg.mxe", "bach.reg.mxe64", "bach.reg.mxo", "bach.reshape.mxe", "bach.reshape.mxe64", "bach.reshape.mxo", "bach.rev.mxe", "bach.rev.mxe64", "bach.rev.mxo", "bach.roll.mxe", "bach.roll.mxe64", "bach.roll.mxo", "bach.rot.mxe", "bach.rot.mxe64", "bach.rot.mxo", "bach.score.mxe", "bach.score.mxe64", "bach.score.mxo", "bach.scramble.mxe", "bach.scramble.mxe64", "bach.scramble.mxo", "bach.shelf.mxe", "bach.shelf.mxe64", "bach.shelf.mxo", "bach.slice.mxe", "bach.slice.mxe64", "bach.slice.mxo", "bach.slot.mxe", "bach.slot.mxe64", "bach.slot.mxo", "bach.sort.mxe", "bach.sort.mxe64", "bach.sort.mxo", "bach.ssort.mxe", "bach.ssort.mxe64", "bach.ssort.mxo", "bach.step.mxe", "bach.step.mxe64", "bach.step.mxo", "bach.submatrix.mxe", "bach.submatrix.mxe64", "bach.submatrix.mxo", "bach.subs.mxe", "bach.subs.mxe64", "bach.subs.mxo", "bach.swap.mxe", "bach.swap.mxe64", "bach.swap.mxo", "bach.symdiff.mxe", "bach.symdiff.mxe64", "bach.symdiff.mxo", "bach.thin.mxe", "bach.thin.mxe64", "bach.thin.mxo", "bach.tonnetz.mxe", "bach.tonnetz.mxe64", "bach.tonnetz.mxo", "bach.trace.mxe", "bach.trace.mxe64", "bach.trace.mxo", "bach.trans.mxe", "bach.trans.mxe64", "bach.trans.mxo", "bach.tree.mxe", "bach.tree.mxe64", "bach.tree.mxo", "bach.union.mxe", "bach.union.mxe64", "bach.union.mxo", "bach.value.mxe", "bach.value.mxe64", "bach.value.mxo", "bach.weights.mxe", "bach.weights.mxe64", "bach.weights.mxo", "bach.wordcloud.mxe", "bach.wordcloud.mxe64", "bach.wordcloud.mxo", "bach.wrap.mxe", "bach.wrap.mxe64", "bach.wrap.mxo", "bach.write.mxe", "bach.write.mxe64", "bach.write.mxo", "bach.writesdif.mxe", "bach.writesdif.mxe64", "bach.writesdif.mxo", "bach.zsearch.mxe", "bach.zsearch.mxe64", "bach.zsearch.mxo" ],
		"patchers" : [ "bach.+.maxpat", "bach.-.maxpat", "bach.abs.maxpat", "bach.autoscale.maxpat", "bach.belong.maxpat", "bach.bin.maxpat", "bach.bitdecode.maxpat", "bach.cartopol.maxpat", "bach.change.maxpat", "bach.chordrev.maxpat", "bach.chordrot.maxpat", "bach.clip.maxpat", "bach.combinevoices.maxpat", "bach.compl.maxpat", "bach.convertbase.maxpat", "bach.coprime.maxpat", "bach.coprimeser.maxpat", "bach.counter.maxpat", "bach.cross.maxpat", "bach.det.maxpat", "bach.div.maxpat", "bach.divisors.maxpat", "bach.dl2curve.maxpat", "bach.dl2line.maxpat", "bach.drip.maxpat", "bach.dsort.maxpat", "bach.dx2x.maxpat", "bach.ezmidiplay.maxpat", "bach.f2mc.maxpat", "bach.fact.maxpat", "bach.filter.maxpat", "bach.filternull.maxpat", "bach.fromc&r.maxpat", "bach.funnel.maxpat", "bach.gcd.maxpat", "bach.getcol.maxpat", "bach.getrow.maxpat", "bach.histo.maxpat", "bach.idmatrix.maxpat", "bach.idvector.maxpat", "bach.ifunc.maxpat", "bach.im.maxpat", "bach.interp.maxpat", "bach.inv.maxpat", "bach.istruct.maxpat", "bach.ker.maxpat", "bach.keychain.maxpat", "bach.kurtosis.maxpat", "bach.lcm.maxpat", "bach.locate.maxpat", "bach.lookup.maxpat", "bach.m2jitcellblock.maxpat", "bach.m2matrixctrl.maxpat", "bach.mapchord.maxpat", "bach.matrixctrl2m.maxpat", "bach.maximum.maxpat", "bach.mc2f.maxpat", "bach.mc2pc.maxpat", "bach.mc2r.maxpat", "bach.mcapprox.maxpat", "bach.mean.maxpat", "bach.median.maxpat", "bach.minimum.maxpat", "bach.mod+.maxpat", "bach.mod-.maxpat", "bach.mod.maxpat", "bach.mode.maxpat", "bach.modtimes.maxpat", "bach.mono.maxpat", "bach.mpow.maxpat", "bach.mrandom.maxpat", "bach.nearest.maxpat", "bach.ninsert.maxpat", "bach.norm.maxpat", "bach.normalize.maxpat", "bach.nsubs.maxpat", "bach.pad.maxpat", "bach.partition.maxpat", "bach.path2llll.maxpat", "bach.pc2mc.maxpat", "bach.pcsetinfo.maxpat", "bach.period.maxpat", "bach.poltocar.maxpat", "bach.pow.maxpat", "bach.prepend.maxpat", "bach.prod.maxpat", "bach.quantiles.maxpat", "bach.r2mc.maxpat", "bach.random.maxpat", "bach.randomdrip.maxpat", "bach.rank.maxpat", "bach.rdiv.maxpat", "bach.reduce.maxpat", "bach.repeat.maxpat", "bach.replace.maxpat", "bach.restrot.maxpat", "bach.rminus.maxpat", "bach.round.maxpat", "bach.scale.maxpat", "bach.score2roll.maxpat", "bach.sieve.maxpat", "bach.skewness.maxpat", "bach.sliceheader.maxpat", "bach.slot2curve.maxpat", "bach.slot2filtercoeff.maxpat", "bach.slot2function.maxpat", "bach.slot2line.maxpat", "bach.split.maxpat", "bach.stdev.maxpat", "bach.stream.maxpat", "bach.sum.maxpat", "bach.tierev.maxpat", "bach.times.maxpat", "bach.toc&r.maxpat", "bach.transcribe.maxpat", "bach.unpacknote.maxpat", "bach.urn.maxpat", "bach.variance.maxpat", "bach.wellshape.maxpat", "bach.wrandom.maxpat", "bach.wurn.maxpat", "bach.x2dx.maxpat" ],
		"help" : [ "bach.+.maxhelp", "bach.-.maxhelp", "bach.abs.maxhelp", "bach.adj.maxhelp", "bach.append.maxhelp", "bach.args.maxhelp", "bach.arithmser.maxhelp", "bach.autoscale.maxhelp", "bach.bachtree2omtree.maxhelp", "bach.beatbox.maxhelp", "bach.beatunbox.maxhelp", "bach.belong.maxhelp", "bach.bin.maxhelp", "bach.bitdecode.maxhelp", "bach.cartesianprod.maxhelp", "bach.cartopol.maxhelp", "bach.change.maxhelp", "bach.chordrev.maxhelp", "bach.chordrot.maxhelp", "bach.circle.maxhelp", "bach.clip.maxhelp", "bach.collect.maxhelp", "bach.comb.maxhelp", "bach.combinevoices.maxhelp", "bach.compl.maxhelp", "bach.constraints.maxhelp", "bach.contains.maxhelp", "bach.convertbase.maxhelp", "bach.coprime.maxhelp", "bach.coprimeser.maxhelp", "bach.counter.maxhelp", "bach.cross.maxhelp", "bach.defer.maxhelp", "bach.deferlow.maxhelp", "bach.delace.maxhelp", "bach.depth.maxhelp", "bach.derive.maxhelp", "bach.det.maxhelp", "bach.diag.maxhelp", "bach.dict2llll.maxhelp", "bach.diff.maxhelp", "bach.div.maxhelp", "bach.divisors.maxhelp", "bach.dl2curve.maxhelp", "bach.dl2line.maxhelp", "bach.drip.maxhelp", "bach.dsort.maxhelp", "bach.dx2x.maxhelp", "bach.eig.maxhelp", "bach.eq.maxhelp", "bach.explorer.empty.maxpat", "bach.explorer.json", "bach.explorer.maxpat", "bach.explorer.welcome.maxpat", "bach.expr.maxhelp", "bach.extractbasis.maxhelp", "bach.ezmidiplay.maxhelp", "bach.f2mc.maxhelp", "bach.fact.maxhelp", "bach.factorize.maxhelp", "bach.fft.maxhelp", "bach.filter.maxhelp", "bach.filternull.maxhelp", "bach.find.maxhelp", "bach.flat.maxhelp", "bach.float2rat.maxhelp", "bach.fromc&r.maxhelp", "bach.funnel.maxhelp", "bach.gausselim.maxhelp", "bach.gcd.maxhelp", "bach.geomser.maxhelp", "bach.geq.maxhelp", "bach.getcol.maxhelp", "bach.getrow.maxhelp", "bach.graph.maxhelp", "bach.group.maxhelp", "bach.gt.maxhelp", "bach.help.home.maxpat", "bach.help.introduction.01_whatisbach.maxpat", "bach.help.introduction.02_rollandscore.maxpat", "bach.help.introduction.03_notationpossibilities.maxpat", "bach.help.introduction.04_rationalandlllls.maxpat", "bach.help.introduction.05_bach and Lisp-based environments.01_bachlisp1.maxpat", "bach.help.introduction.05_bach and Lisp-based environments.01_bachlisp2.maxpat", "bach.help.introduction.07_realtimecacapproach.maxpat", "bach.help.introduction.08_bachfornoncomposers.maxpat", "bach.help.introduction.09_licenseandcredits.maxpat", "bach.help.json", "bach.help.llll.01_intro.maxpat", "bach.help.llll.02_length.maxpat", "bach.help.llll.02_llllmessage.maxpat", "bach.help.llll.03_outlet types.03_nativeortext.maxpat", "bach.help.llll.03_outlet types.04_mixedoutlets.maxpat", "bach.help.llll.05_depths.06_depth.maxpat", "bach.help.llll.05_depths.07_depthelems.maxpat", "bach.help.llll.05_depths.11_negativedepths.maxpat", "bach.help.llll.05_depths.12_mindepthmaxdepth.maxpat", "bach.help.llll.05_depths.13_mindepthmaxdepthoperations.maxpat", "bach.help.llll.06_addresses.08_address.maxpat", "bach.help.llll.06_addresses.09_negativeaddresses.maxpat", "bach.help.llll.06_addresses.10_addressrange.maxpat", "bach.help.llll.07_nil_and_null.maxpat", "bach.help.llll.08_llllanddollars.maxpat", "bach.help.llll.09_llllanddoublequotes.maxpat", "bach.help.llll.10_attributessymbols.maxpat", "bach.help.llll.11_backticks.maxpat", "bach.help.llll.12_numbers.maxpat", "bach.help.llll.13_thegoldenrule.maxpat", "bach.help.llll.14_deferring.maxpat", "bach.help.llll.20_lambda behavior.14_lambda.maxpat", "bach.help.llll.20_lambda behavior.15_lambdamodification.maxpat", "bach.help.llll.20_lambda behavior.16_lambdasorting.maxpat", "bach.help.llll.20_lambda behavior.17_lambdadisclaimer.maxpat", "bach.help.llll.30_speed.maxpat", "bach.help.llll.40_trivia.maxpat", "bach.help.notation.accidentals and microtones.01_tonedivision.maxpat", "bach.help.notation.accidentals and microtones.02_tonedivisioncorresp.maxpat", "bach.help.notation.accidentals and microtones.03_accidentals.maxpat", "bach.help.notation.accidentals and microtones.04_accidentalspreferences.maxpat", "bach.help.notation.accidentals and microtones.10_semitonalenharmonictable.maxpat", "bach.help.notation.accidentals and microtones.11_microtonalenharmonictable.maxpat", "bach.help.notation.accidentals and microtones.15_userdefined.maxpat", "bach.help.notation.accidentals and microtones.20_accidentalsrepeat.maxpat", "bach.help.notation.accidentals and microtones.21_accidentalsandties.maxpat", "bach.help.notation.accidentals and microtones.22_cautionaryaccidentals.maxpat", "bach.help.notation.appearance.01_zoom.maxpat", "bach.help.notation.appearance.02_autozoom.maxpat", "bach.help.notation.appearance.03_zoominterface.maxpat", "bach.help.notation.appearance.04_scrollbarinterface.maxpat", "bach.help.notation.appearance.05_zoomorspacing.maxpat", "bach.help.notation.appearance.06_velocityhandling.maxpat", "bach.help.notation.appearance.07_stemsanddurations.maxpat", "bach.help.notation.appearance.08_showhidescoreelements.maxpat", "bach.help.notation.appearance.09_chordalignment.maxpat", "bach.help.notation.appearance.10_additionalstartpad.maxpat", "bach.help.notation.appearance.11_inset.maxpat", "bach.help.notation.appearance.12_legend.maxpat", "bach.help.notation.appearance.12_nonantialiasedlines.maxpat", "bach.help.notation.appearance.13_notenames.maxpat", "bach.help.notation.appearance.14_ledgerlines.maxpat", "bach.help.notation.appearance.15_lyricsattributes.maxpat", "bach.help.notation.appearance.20_changefonts.maxpat", "bach.help.notation.appearance.21_supportedfonts.maxpat", "bach.help.notation.appearance.22_tempi.maxpat", "bach.help.notation.appearance.25_beams.maxpat", "bach.help.notation.appearance.26_floatingrests.maxpat", "bach.help.notation.appearance.27_tuplets.maxpat", "bach.help.notation.appearance.28_gracechords.maxpat", "bach.help.notation.appearance.30_ruler and grid.01_ruler.maxpat", "bach.help.notation.appearance.30_ruler and grid.02_periodandsubdivisions.maxpat", "bach.help.notation.appearance.30_ruler and grid.03_rulermoderoll.maxpat", "bach.help.notation.appearance.30_ruler and grid.04_rulergridcolors.maxpat", "bach.help.notation.appearance.40_slots.01_backgroundslots.maxpat", "bach.help.notation.appearance.40_slots.02_slotzoom.maxpat", "bach.help.notation.appearance.40_slots.03_slotwinwidth.maxpat", "bach.help.notation.appearance.40_slots.04_slotwinheight.maxpat", "bach.help.notation.appearance.40_slots.05_slotwinalpha.maxpat", "bach.help.notation.appearance.50_spacing.01_spacingmode.maxpat", "bach.help.notation.appearance.50_spacing.02_spacingnotets.maxpat", "bach.help.notation.appearance.50_spacing.03_spacingsmart.maxpat", "bach.help.notation.appearance.50_spacing.04_spacingproportional.maxpat", "bach.help.notation.appearance.50_spacing.05_spacingproportionalexample.maxpat", "bach.help.notation.appearance.50_spacing.06_spacingspring.maxpat", "bach.help.notation.appearance.50_spacing.10_measurewidth.maxpat", "bach.help.notation.appearance.50_spacing.11_spacingwidth.maxpat", "bach.help.notation.appearance.50_spacing.12_minimalwidths.maxpat", "bach.help.notation.appearance.50_spacing.13_localspacing.maxpat", "bach.help.notation.appearance.50_spacing.14_resetwidthfactors.maxpat", "bach.help.notation.appearance.50_spacing.20_rollcustomspacing.maxpat", "bach.help.notation.appearance.50_spacing.21_rollcustomspacingabsolute.maxpat", "bach.help.notation.appearance.50_spacing.22_rollcustomspacingrelative.maxpat", "bach.help.notation.appearance.60_barlinesacrossstaves.maxpat", "bach.help.notation.appearance.61_measurenumbers.maxpat", "bach.help.notation.appearance.62_individualmeasurenumbers.maxpat", "bach.help.notation.appearance.63_tempiandts.maxpat", "bach.help.notation.appearance.65_articulations.maxpat", "bach.help.notation.appearance.80_paintmethodandthreading.maxpat", "bach.help.notation.commands.01_intro.maxpat", "bach.help.notation.commands.02_behavior.maxpat", "bach.help.notation.commands.03_noteorchord.maxpat", "bach.help.notation.commands.04_usage.maxpat", "bach.help.notation.editing.00a_intro.maxpat", "bach.help.notation.editing.00b_changedbang.maxpat", "bach.help.notation.editing.01_addchordroll.maxpat", "bach.help.notation.editing.02_addmeasurescore.maxpat", "bach.help.notation.editing.03_splitchordscore.maxpat", "bach.help.notation.editing.04_joinchordscore.maxpat", "bach.help.notation.editing.05_selectionbasic.maxpat", "bach.help.notation.editing.06_selectionnavigate.maxpat", "bach.help.notation.editing.07_changedurationroll.maxpat", "bach.help.notation.editing.08_changepitch copy.maxpat", "bach.help.notation.editing.09_delete.maxpat", "bach.help.notation.editing.10_edittiedsequences.maxpat", "bach.help.notation.editing.11_tempo_and_poptempo.maxpat", "bach.help.notation.editing.12_copypastebasic.maxpat", "bach.help.notation.editing.13_copypasteextended.maxpat", "bach.help.notation.editing.14_addbreakpoint.maxpat", "bach.help.notation.editing.15_breakpointvelocitypitch.maxpat", "bach.help.notation.editing.16_breakpointposition.maxpat", "bach.help.notation.editing.17_durationlineslope.maxpat", "bach.help.notation.editing.18_alignanddistribute.maxpat", "bach.help.notation.editing.19_rhythmictrees.maxpat", "bach.help.notation.editing.20_popup menu.01_intro.maxpat", "bach.help.notation.editing.20_popup menu.02_voices.maxpat", "bach.help.notation.editing.20_popup menu.03_rollsel.maxpat", "bach.help.notation.editing.20_popup menu.04_scoresel.maxpat", "bach.help.notation.editing.20_popup menu.05_measure.maxpat", "bach.help.notation.editing.20_popup menu.06_barline.maxpat", "bach.help.notation.editing.20_popup menu.07_background.maxpat", "bach.help.notation.editing.24_respell.maxpat", "bach.help.notation.editing.25_snappitches.maxpat", "bach.help.notation.editing.26_snaptemporal.maxpat", "bach.help.notation.editing.27_markersinterface.maxpat", "bach.help.notation.editing.28_markersinterfacesnap.maxpat", "bach.help.notation.editing.29_fine_editing.maxpat", "bach.help.notation.editing.32_inspector.01_intro.maxpat", "bach.help.notation.editing.32_inspector.02_voices.maxpat", "bach.help.notation.editing.32_inspector.03_measures.maxpat", "bach.help.notation.editing.32_inspector.04_rollchord.maxpat", "bach.help.notation.editing.32_inspector.05_scorechord.maxpat", "bach.help.notation.editing.32_inspector.06_rollnote.maxpat", "bach.help.notation.editing.32_inspector.07_scorenote.maxpat", "bach.help.notation.editing.32_inspector.08_tempo.maxpat", "bach.help.notation.editing.32_inspector.09_rollmarker.maxpat", "bach.help.notation.editing.32_inspector.10_scoremarker.maxpat", "bach.help.notation.editing.32_inspector.11_pitchbreakpoint.maxpat", "bach.help.notation.editing.32_inspector.12_slotinfo.maxpat", "bach.help.notation.editing.33_navigating.maxpat", "bach.help.notation.editing.34_undo.maxpat", "bach.help.notation.editing.35_lineareditscore.maxpat", "bach.help.notation.editing.36_lineareditscoreextended.maxpat", "bach.help.notation.editing.37_dilationrectangle.maxpat", "bach.help.notation.editing.38_groups.maxpat", "bach.help.notation.editing.40_slots.01_window.maxpat", "bach.help.notation.editing.40_slots.03_changewindow.maxpat", "bach.help.notation.editing.40_slots.04_common.maxpat", "bach.help.notation.editing.40_slots.05_copypaste.maxpat", "bach.help.notation.editing.40_slots.06_inpopupmenu.maxpat", "bach.help.notation.editing.40_slots.07_directpopup.maxpat", "bach.help.notation.editing.40_slots.08_default.maxpat", "bach.help.notation.editing.40_slots.10_function.maxpat", "bach.help.notation.editing.40_slots.11_function_selection.maxpat", "bach.help.notation.editing.40_slots.12_function_selection_copypaste.maxpat", "bach.help.notation.editing.40_slots.13_function_pen_mode.maxpat", "bach.help.notation.editing.40_slots.22_numericslots.maxpat", "bach.help.notation.editing.40_slots.23_textandllll.maxpat", "bach.help.notation.editing.40_slots.24_filelistandcolor.maxpat", "bach.help.notation.editing.40_slots.25_spat.maxpat", "bach.help.notation.editing.40_slots.26_matrix.maxpat", "bach.help.notation.editing.40_slots.27_3dfunction.maxpat", "bach.help.notation.editing.40_slots.28_filter.maxpat", "bach.help.notation.editing.40_slots.29_dynfilter.maxpat", "bach.help.notation.editing.40_slots.40_functionysnap.maxpat", "bach.help.notation.editing.40_slots.50_horizontalslotzoom.maxpat", "bach.help.notation.editing.45_lyrics.maxpat", "bach.help.notation.editing.46_articulations.maxpat", "bach.help.notation.editing.47_articulationslist.maxpat", "bach.help.notation.editing.50_ignoreclick.maxpat", "bach.help.notation.editing.51_lockingcontent.maxpat", "bach.help.notation.editing.52_lockingbarline.maxpat", "bach.help.notation.editing.53_changemeasurewidth.maxpat", "bach.help.notation.editing.54_lockingrhythmictree.maxpat", "bach.help.notation.editing.80_preventedit.maxpat", "bach.help.notation.editing.81_reversedpreventedit.maxpat", "bach.help.notation.editing.82_allpreventpossibilities.maxpat", "bach.help.notation.editing.85_forcepitchrange.maxpat", "bach.help.notation.editing.86_advancedundo.maxpat", "bach.help.notation.markers.01_basicroll.maxpat", "bach.help.notation.markers.02_basicscore.maxpat", "bach.help.notation.markers.03_attachment.maxpat", "bach.help.notation.markers.05_markersinterface.maxpat", "bach.help.notation.markers.06_markersinterfacesnap.maxpat", "bach.help.notation.markers.10_selection.maxpat", "bach.help.notation.markers.12_changename.maxpat", "bach.help.notation.markers.14_cursorandscreen.maxpat", "bach.help.notation.markers.16_roles.maxpat", "bach.help.notation.markers.18_quantization.maxpat", "bach.help.notation.markers.20_queries.maxpat", "bach.help.notation.messages.01_addchord.maxpat", "bach.help.notation.messages.02_addchords.maxpat", "bach.help.notation.messages.03_gluechord.maxpat", "bach.help.notation.messages.04_gluechordslots.maxpat", "bach.help.notation.messages.05_gluechordexample.maxpat", "bach.help.notation.messages.06_addmeasures.maxpat", "bach.help.notation.messages.07_deleteorinsertvoice.maxpat", "bach.help.notation.messages.08_clear.maxpat", "bach.help.notation.messages.09_advancedclear.maxpat", "bach.help.notation.messages.10_dump.maxpat", "bach.help.notation.messages.11_dumpsingleroll.maxpat", "bach.help.notation.messages.12_dumpsinglescore.maxpat", "bach.help.notation.messages.13_dumpsingleslot.maxpat", "bach.help.notation.messages.15_mergeroll.maxpat", "bach.help.notation.messages.16_mergescore.maxpat", "bach.help.notation.messages.17_splitchordinscore.maxpat", "bach.help.notation.messages.18_slicechordinroll.maxpat", "bach.help.notation.messages.20_selection.01_basic.maxpat", "bach.help.notation.messages.20_selection.02_selectingallelements.maxpat", "bach.help.notation.messages.20_selection.03_selectingregion.maxpat", "bach.help.notation.messages.20_selection.04_selectingwithtp.maxpat", "bach.help.notation.messages.20_selection.05_deselecting.maxpat", "bach.help.notation.messages.20_selection.06_involutiveselection.maxpat", "bach.help.notation.messages.20_selection.10_selectingandvoices.maxpat", "bach.help.notation.messages.20_selection.20_selectingsinglechords.maxpat", "bach.help.notation.messages.20_selection.21_selectingsinglenotes.maxpat", "bach.help.notation.messages.20_selection.22_selectingsinglemeasures.maxpat", "bach.help.notation.messages.20_selection.23_selectingmultipleitems.maxpat", "bach.help.notation.messages.20_selection.30_selectingmeasureranges.maxpat", "bach.help.notation.messages.20_selection.31_selectingbyname.maxpat", "bach.help.notation.messages.20_selection.32_conditionalselection.maxpat", "bach.help.notation.messages.20_selection.33_conditionalselectionmarkers.maxpat", "bach.help.notation.messages.20_selection.34_conditionalselectionbreakpoints.maxpat", "bach.help.notation.messages.30_operate on selection.01_dump.maxpat", "bach.help.notation.messages.30_operate on selection.02_delete.maxpat", "bach.help.notation.messages.30_operate on selection.03_onsettailduration.maxpat", "bach.help.notation.messages.30_operate on selection.04_centsvelocity.maxpat", "bach.help.notation.messages.30_operate on selection.05_tie copia.maxpat", "bach.help.notation.messages.30_operate on selection.06_voice.maxpat", "bach.help.notation.messages.30_operate on selection.07_measureinfo.maxpat", "bach.help.notation.messages.30_operate on selection.08_markeronset.maxpat", "bach.help.notation.messages.30_operate on selection.09_relativeparameterchange.maxpat", "bach.help.notation.messages.30_operate on selection.10_equationchange.maxpat", "bach.help.notation.messages.30_operate on selection.11_inplace.maxpat", "bach.help.notation.messages.30_operate on selection.12_breakpoints.maxpat", "bach.help.notation.messages.30_operate on selection.13_slot.maxpat", "bach.help.notation.messages.30_operate on selection.14_slotchange.maxpat", "bach.help.notation.messages.30_operate on selection.15_relativeslotchange.maxpat", "bach.help.notation.messages.30_operate on selection.21_openslotwin.maxpat", "bach.help.notation.messages.30_operate on selection.22_snap.maxpat", "bach.help.notation.messages.30_operate on selection.23_deletearticulations.maxpat", "bach.help.notation.messages.30_operate on selection.24_legato.maxpat", "bach.help.notation.messages.30_operate on selection.25_legatopreserverests.maxpat", "bach.help.notation.messages.30_operate on selection.26_glissando.maxpat", "bach.help.notation.messages.30_operate on selection.30_distribute.maxpat", "bach.help.notation.messages.30_operate on selection.31_rebeam.maxpat", "bach.help.notation.messages.30_operate on selection.35_name.maxpat", "bach.help.notation.messages.30_operate on selection.40_lambda1.maxpat", "bach.help.notation.messages.30_operate on selection.41_lambda2.maxpat", "bach.help.notation.messages.30_operate on selection.42_lambdaexample.maxpat", "bach.help.notation.messages.30_operate on selection.50_cutcopypaste.maxpat", "bach.help.notation.messages.30_operate on selection.51_cutcopypasteslot.maxpat", "bach.help.notation.messages.31_symbolvariables.maxpat", "bach.help.notation.messages.40_subroll.maxpat", "bach.help.notation.messages.41_subrolloption.maxpat", "bach.help.notation.messages.42_subscore.maxpat", "bach.help.notation.messages.43_subscoreoption.maxpat", "bach.help.notation.messages.51_setmeasureparameters.maxpat", "bach.help.notation.messages.70_domain.maxpat", "bach.help.notation.messages.71_domainslot.maxpat", "bach.help.notation.messages.72_inscreen.maxpat", "bach.help.notation.messages.73_inscreenforscore.maxpat", "bach.help.notation.messages.74_inscreenmeas.maxpat", "bach.help.notation.messages.75_inscreenexample.maxpat", "bach.help.notation.messages.76_automessage.maxpat", "bach.help.notation.messages.77_refresh.maxpat", "bach.help.notation.messages.78_realtime.maxpat", "bach.help.notation.messages.80_explodechords.maxpat", "bach.help.notation.messages.81_collapse.maxpat", "bach.help.notation.messages.82_collapseandcombine.maxpat", "bach.help.notation.messages.83_ceilmeasures.maxpat", "bach.help.notation.messages.85_getcurrentchord.maxpat", "bach.help.notation.messages.86_interp.maxpat", "bach.help.notation.messages.87_sample.maxpat", "bach.help.notation.messages.87_sampletimepoint.maxpat", "bach.help.notation.messages.90_score2roll.maxpat", "bach.help.notation.messages.91_filltiesequenceswithslots.maxpat", "bach.help.notation.messages.95_basicovertype.maxpat", "bach.help.notation.messages.96_advancedovertype.maxpat", "bach.help.notation.naming.01_basicnaming.maxpat", "bach.help.notation.naming.02_multiplenames.maxpat", "bach.help.notation.naming.03_nameappend.maxpat", "bach.help.notation.naming.04_clearnames.maxpat", "bach.help.notation.naming.10_namesingatheredsyntax.maxpat", "bach.help.notation.naming.20_realtimenaming.maxpat", "bach.help.notation.naming.21_integersasnames.maxpat", "bach.help.notation.naming.30_labelfamilies.maxpat", "bach.help.notation.quantization.01_intro.maxpat", "bach.help.notation.quantization.02_roll2score.maxpat", "bach.help.notation.quantization.03_score2score.maxpat", "bach.help.notation.quantization.04_selectivequantization.maxpat", "bach.help.notation.quantization.05_separate.maxpat", "bach.help.notation.quantization.10_minimal units.01_minimalunits.maxpat", "bach.help.notation.quantization.10_minimal units.02_voicewise.maxpat", "bach.help.notation.quantization.10_minimal units.03_dynamicminimalunits.maxpat", "bach.help.notation.quantization.10_minimal units.04_symbolicdensity.maxpat", "bach.help.notation.quantization.10_minimal units.05_dynamicminimalunitssyntax.maxpat", "bach.help.notation.quantization.10_minimal units.06_dynamicminimalunitsasdefault.maxpat", "bach.help.notation.quantization.10_minimal units.07_tips.maxpat", "bach.help.notation.quantization.12_synchronicities.maxpat", "bach.help.notation.quantization.13_quantization from markers.01_intro.maxpat", "bach.help.notation.quantization.13_quantization from markers.02_tempisync.maxpat", "bach.help.notation.quantization.13_quantization from markers.03_syncexample.maxpat", "bach.help.notation.quantization.13_quantization from markers.04_syncexamplepickup.maxpat", "bach.help.notation.quantization.13_quantization from markers.05_midiimport.maxpat", "bach.help.notation.quantization.13_quantization from markers.06_lessbarlines copia.maxpat", "bach.help.notation.quantization.13_quantization from markers.07_nonstandardts.maxpat", "bach.help.notation.quantization.13_quantization from markers.08_incoherentsubdiv.maxpat", "bach.help.notation.quantization.14_attributes.maxpat", "bach.help.notation.quantization.15_smallevents.maxpat", "bach.help.notation.quantization.16_priority.maxpat", "bach.help.notation.quantization.30_regularity boxes.01_regularityboxes.maxpat", "bach.help.notation.quantization.30_regularity boxes.02_regularityboxesexample.maxpat", "bach.help.notation.quantization.31_allow or forbid configurations.01_allowforbid.maxpat", "bach.help.notation.quantization.31_allow or forbid configurations.02_voicewise.maxpat", "bach.help.notation.quantization.31_allow or forbid configurations.03_beware.maxpat", "bach.help.notation.queries and notifications.01_queryingnumbers.maxpat", "bach.help.notation.queries and notifications.02_queryinglength.maxpat", "bach.help.notation.queries and notifications.03_queryingpixelpositions.maxpat", "bach.help.notation.queries and notifications.04_queryingzoom.maxpat", "bach.help.notation.queries and notifications.05_pixeltotime.maxpat", "bach.help.notation.queries and notifications.06_timetopixel.maxpat", "bach.help.notation.queries and notifications.07_timepointsconversion.maxpat", "bach.help.notation.queries and notifications.08_testdomain.maxpat", "bach.help.notation.queries and notifications.10_assigninglabels.maxpat", "bach.help.notation.queries and notifications.11_notifications.maxpat", "bach.help.notation.queries and notifications.12_donemessage.maxpat", "bach.help.notation.queries and notifications.13_donemessageafterpaint.maxpat", "bach.help.notation.queries and notifications.15_queryingloop.maxpat", "bach.help.notation.queries and notifications.20_notificationformessages.maxpat", "bach.help.notation.rhythm and beams.01_intro.maxpat", "bach.help.notation.rhythm and beams.02_dots.maxpat", "bach.help.notation.rhythm and beams.03_basicrebeam.maxpat", "bach.help.notation.rhythm and beams.04_interfaceparsing.maxpat", "bach.help.notation.rhythm and beams.10_syncopations.01_intro.maxpat", "bach.help.notation.rhythm and beams.10_syncopations.02_asym.maxpat", "bach.help.notation.rhythm and beams.10_syncopations.03_pos.maxpat", "bach.help.notation.rhythm and beams.30_rhythmic trees.01_basic.maxpat", "bach.help.notation.rhythm and beams.30_rhythmic trees.02_levels.maxpat", "bach.help.notation.rhythm and beams.30_rhythmic trees.03_goldenrule.maxpat", "bach.help.notation.rhythm and beams.30_rhythmic trees.04_treehandling.maxpat", "bach.help.notation.rhythm and beams.30_rhythmic trees.05_treeandts.maxpat", "bach.help.notation.rhythm and beams.30_rhythmic trees.06_leveltobeam.maxpat", "bach.help.notation.rhythm and beams.30_rhythmic trees.07_restandbeams.maxpat", "bach.help.notation.rhythm and beams.30_rhythmic trees.08_breakrootlevelbeams.maxpat", "bach.help.notation.rhythm and beams.30_rhythmic trees.20_jointuplets.maxpat", "bach.help.notation.rhythm and beams.30_rhythmic trees.21_simplifytuplets.maxpat", "bach.help.notation.rhythm and beams.30_rhythmic trees.22_dottedtuplets.maxpat", "bach.help.notation.rhythm and beams.30_rhythmic trees.23_nestedtuplets.maxpat", "bach.help.notation.rhythm and beams.30_rhythmic trees.30_gracechords.maxpat", "bach.help.notation.save and load.01_embed.maxpat", "bach.help.notation.save and load.02_presetsupport.maxpat", "bach.help.notation.save and load.03_saveandload.maxpat", "bach.help.notation.save and load.04_saveandloadtrees.maxpat", "bach.help.notation.save and load.10_MIDI.10_midiimport.maxpat", "bach.help.notation.save and load.10_MIDI.11_midiimportandmeasures.maxpat", "bach.help.notation.save and load.10_MIDI.12_midiimportscore.maxpat", "bach.help.notation.save and load.10_MIDI.13_midiexport.maxpat", "bach.help.notation.save and load.10_MIDI.14_midiexportandmeasures.maxpat", "bach.help.notation.save and load.10_MIDI.15_midiexportsr.maxpat", "bach.help.notation.save and load.20_MusicXML.20_xmlimport.maxpat", "bach.help.notation.save and load.20_MusicXML.21_xmlexport.maxpat", "bach.help.notation.save and load.20_MusicXML.22_xmlquartertones.maxpat", "bach.help.notation.save and load.30_OpenMusic.30_omimport.maxpat", "bach.help.notation.save and load.30_OpenMusic.31_omexport.maxpat", "bach.help.notation.save and load.40_PWGL.40_pwglcommunication.maxpat", "bach.help.notation.save and load.40_PWGL.41_pwglimport.maxpat", "bach.help.notation.save and load.40_PWGL.42_pwglexport.maxpat", "bach.help.notation.save and load.50_LilyPond.maxpat", "bach.help.notation.save and load.51_LilyPondpdf.maxpat", "bach.help.notation.sequencing.01_playing.maxpat", "bach.help.notation.sequencing.02_dblclicksendsvalues.maxpat", "bach.help.notation.sequencing.03_playingmessages.maxpat", "bach.help.notation.sequencing.04_playselection.maxpat", "bach.help.notation.sequencing.05_playinginterface.maxpat", "bach.help.notation.sequencing.06_playmode.maxpat", "bach.help.notation.sequencing.07_unpackplaysyntax.maxpat", "bach.help.notation.sequencing.08_unpackplaysyntaxroll.maxpat", "bach.help.notation.sequencing.09_unpackplaysyntaxscore.maxpat", "bach.help.notation.sequencing.10_cursor.maxpat", "bach.help.notation.sequencing.11_cursorinterface.maxpat", "bach.help.notation.sequencing.12_playpartialnotes.maxpat", "bach.help.notation.sequencing.13_playmarkers.maxpat", "bach.help.notation.sequencing.14_playtiedelements.maxpat", "bach.help.notation.sequencing.15_gracechords.maxpat", "bach.help.notation.sequencing.16_playrests.maxpat", "bach.help.notation.sequencing.17_playmeasures.maxpat", "bach.help.notation.sequencing.18_playtempi.maxpat", "bach.help.notation.sequencing.19_tracktempo.maxpat", "bach.help.notation.sequencing.20_loopregion.maxpat", "bach.help.notation.sequencing.21_loopregioninterface.maxpat", "bach.help.notation.sequencing.25_offlineplay.maxpat", "bach.help.notation.sequencing.30_mute.maxpat", "bach.help.notation.sequencing.31_solo.maxpat", "bach.help.notation.sequencing.32_mutesololock.maxpat", "bach.help.notation.sequencing.33_varyingplayrate.maxpat", "bach.help.notation.sequencing.34_playrefresh.maxpat", "bach.help.notation.sequencing.40_fullpathinplayout.maxpat", "bach.help.notation.sequencing.41_fullpathinplayoutexample.maxpat", "bach.help.notation.sequencing.50_minlength.maxpat", "bach.help.notation.slots.01_introduction.maxpat", "bach.help.notation.slots.02_introtypes.maxpat", "bach.help.notation.slots.03_linktoothersections.maxpat", "bach.help.notation.slots.04_slotinfo.maxpat", "bach.help.notation.slots.05_slotinfoexamples.maxpat", "bach.help.notation.slots.06_openingaslot.maxpat", "bach.help.notation.slots.10_slot types.01_function.maxpat", "bach.help.notation.slots.10_slot types.02_numeric.maxpat", "bach.help.notation.slots.10_slot types.03_text.maxpat", "bach.help.notation.slots.10_slot types.04_llll.maxpat", "bach.help.notation.slots.10_slot types.05_filelist.maxpat", "bach.help.notation.slots.10_slot types.06_spat.maxpat", "bach.help.notation.slots.10_slot types.07_filter.maxpat", "bach.help.notation.slots.10_slot types.08_dynfilter.maxpat", "bach.help.notation.slots.10_slot types.09_matrix.maxpat", "bach.help.notation.slots.10_slot types.10_color.maxpat", "bach.help.notation.slots.10_slot types.11_3dfunction.maxpat", "bach.help.notation.slots.11_slotdomain.maxpat", "bach.help.notation.slots.12_slotrange.maxpat", "bach.help.notation.slots.13_slotzrange.maxpat", "bach.help.notation.slots.15_sampleandinterp.maxpat", "bach.help.notation.slots.18_samplingrate.maxpat", "bach.help.notation.slots.20_slot representation.01_intro.maxpat", "bach.help.notation.slots.20_slot representation.02_numberunits.maxpat", "bach.help.notation.slots.20_slot representation.03_functionunits.maxpat", "bach.help.notation.slots.20_slot representation.04_filterunits.maxpat", "bach.help.notation.slots.20_slot representation.05_enums.maxpat", "bach.help.notation.slots.20_slot representation.06_matrices.maxpat", "bach.help.notation.slots.25_slottypeconversion.maxpat", "bach.help.notation.slots.26_slotrangeconversion.maxpat", "bach.help.notation.slots.27_slotrangeconversionexample.maxpat", "bach.help.notation.slots.28_resetslotinfo.maxpat", "bach.help.notation.slots.30_slot linkage.01_intro.maxpat", "bach.help.notation.slots.30_slot linkage.02_lyrics.maxpat", "bach.help.notation.slots.30_slot linkage.04_lyricsexample.maxpat", "bach.help.notation.slots.30_slot linkage.05_notecolorcolor.maxpat", "bach.help.notation.slots.30_slot linkage.06_notecolorint.maxpat", "bach.help.notation.slots.30_slot linkage.07_notecolorfloat.maxpat", "bach.help.notation.slots.30_slot linkage.08_notecolorfloatlist.maxpat", "bach.help.notation.slots.30_slot linkage.09_noteheads.maxpat", "bach.help.notation.slots.30_slot linkage.10_noteheadfont.maxpat", "bach.help.notation.slots.30_slot linkage.11_noteheadposition.maxpat", "bach.help.notation.slots.30_slot linkage.12_notesize.maxpat", "bach.help.notation.syntax.01_intro.maxpat", "bach.help.notation.syntax.02_inletsandoutlets.maxpat", "bach.help.notation.syntax.03_parameters.maxpat", "bach.help.notation.syntax.04_hierarchy.maxpat", "bach.help.notation.syntax.05_parametersextended.maxpat", "bach.help.notation.syntax.07_timepoints.maxpat", "bach.help.notation.syntax.08_timepointsextended.maxpat", "bach.help.notation.syntax.10_separate syntax.01_defining.maxpat", "bach.help.notation.syntax.10_separate syntax.02_moreparamsroll.maxpat", "bach.help.notation.syntax.10_separate syntax.03_moreparamsscore.maxpat", "bach.help.notation.syntax.10_separate syntax.04_rests.maxpat", "bach.help.notation.syntax.10_separate syntax.05_restsexample.maxpat", "bach.help.notation.syntax.10_separate syntax.10_ties.maxpat", "bach.help.notation.syntax.10_separate syntax.11_autoclear.maxpat", "bach.help.notation.syntax.10_separate syntax.12_singleparamshortcut.maxpat", "bach.help.notation.syntax.10_separate syntax.13_voicesyntaxpadding.maxpat", "bach.help.notation.syntax.10_separate syntax.16_extras.maxpat", "bach.help.notation.syntax.10_separate syntax.17_rhythmictrees.maxpat", "bach.help.notation.syntax.10_separate syntax.18_gracechords.maxpat", "bach.help.notation.syntax.10_separate syntax.21_paramsdefault.maxpat", "bach.help.notation.syntax.10_separate syntax.60_rollexample.maxpat", "bach.help.notation.syntax.10_separate syntax.61_scoreexample.maxpat", "bach.help.notation.syntax.10_separate syntax.62_rollexample2.maxpat", "bach.help.notation.syntax.10_separate syntax.63_scoreexample2.maxpat", "bach.help.notation.syntax.20_gathered syntax.01_usage.maxpat", "bach.help.notation.syntax.20_gathered syntax.02_rollnotes.maxpat", "bach.help.notation.syntax.20_gathered syntax.03_scorenotes.maxpat", "bach.help.notation.syntax.20_gathered syntax.04_rollchords.maxpat", "bach.help.notation.syntax.20_gathered syntax.05_scorechords.maxpat", "bach.help.notation.syntax.20_gathered syntax.06_scorerests.maxpat", "bach.help.notation.syntax.20_gathered syntax.07_measures.maxpat", "bach.help.notation.syntax.20_gathered syntax.08_measurelevels.maxpat", "bach.help.notation.syntax.20_gathered syntax.09_measuresleveltypes.maxpat", "bach.help.notation.syntax.20_gathered syntax.10_gracelevels.maxpat", "bach.help.notation.syntax.20_gathered syntax.15_rollvoices.maxpat", "bach.help.notation.syntax.20_gathered syntax.16_scorevoices.maxpat", "bach.help.notation.syntax.20_gathered syntax.17_roll.maxpat", "bach.help.notation.syntax.20_gathered syntax.18_score.maxpat", "bach.help.notation.syntax.20_gathered syntax.19_slot.maxpat", "bach.help.notation.syntax.20_gathered syntax.20_routersymbol.maxpat", "bach.help.notation.syntax.20_gathered syntax.21_flags.maxpat", "bach.help.notation.syntax.20_gathered syntax.70_extras.maxpat", "bach.help.notation.syntax.25_rhythmictreesoutput.maxpat", "bach.help.notation.syntax.26_tiesinrhythmictree.maxpat", "bach.help.notation.syntax.27_gracechords.maxpat", "bach.help.notation.syntax.30_playout syntax.01_usage.maxpat", "bach.help.notation.syntax.30_playout syntax.02_notewise.maxpat", "bach.help.notation.syntax.30_playout syntax.03_chordwise.maxpat", "bach.help.notation.syntax.30_playout syntax.04_gracechords.maxpat", "bach.help.notation.syntax.30_playout syntax.05_fullpath.maxpat", "bach.help.notation.syntax.40_measureinfo.01_measureinfo.maxpat", "bach.help.notation.syntax.40_measureinfo.02_measureinfoassign.maxpat", "bach.help.notation.syntax.40_measureinfo.10_timesignature.maxpat", "bach.help.notation.syntax.40_measureinfo.11_skippingtimesignature.maxpat", "bach.help.notation.syntax.40_measureinfo.20_tempo.maxpat", "bach.help.notation.syntax.40_measureinfo.21_multipletempi.maxpat", "bach.help.notation.syntax.40_measureinfo.21_tempoapprox.maxpat", "bach.help.notation.syntax.40_measureinfo.22_tempiorder.maxpat", "bach.help.notation.syntax.40_measureinfo.23_tempirepeatacrossmeasures.maxpat", "bach.help.notation.syntax.40_measureinfo.30_measureparameters.maxpat", "bach.help.notation.syntax.40_measureinfo.31_measurewidth.maxpat", "bach.help.notation.syntax.40_measureinfo.32_barlinetypes.maxpat", "bach.help.notation.syntax.40_measureinfo.33_measurenumbers.maxpat", "bach.help.notation.syntax.40_measureinfo.34_boxes.maxpat", "bach.help.notation.syntax.40_measureinfo.35_boxesextended.maxpat", "bach.help.notation.syntax.40_measureinfo.36_boxeswarning.maxpat", "bach.help.notation.syntax.40_measureinfo.40_definingformorethanonemeasure.maxpat", "bach.help.notation.syntax.50_header.01_intro.maxpat", "bach.help.notation.syntax.50_header.02_whatclears.maxpat", "bach.help.notation.syntax.50_header.03_attributesvsheader.maxpat", "bach.help.notation.syntax.50_header.04_retrieve.maxpat", "bach.help.notation.syntax.50_header.10_keysclefsnamesmidichannels.maxpat", "bach.help.notation.syntax.50_header.11_stafflines.maxpat", "bach.help.notation.syntax.50_header.12_markers.maxpat", "bach.help.notation.syntax.50_header.13_slotinfo.maxpat", "bach.help.notation.syntax.50_header.14_slotinfo2.maxpat", "bach.help.notation.syntax.50_header.15_slotinfo3.maxpat", "bach.help.notation.syntax.50_header.20_commands.maxpat", "bach.help.notation.syntax.50_header.21_groups.maxpat", "bach.help.notation.syntax.70_graphic enharmonicity.maxpat", "bach.help.notation.syntax.75_pitch breakpoints.01_breakpoints.maxpat", "bach.help.notation.syntax.75_pitch breakpoints.02_trivialbreakpoints.maxpat", "bach.help.notation.syntax.75_pitch breakpoints.03_breakpointvelocity.maxpat", "bach.help.notation.syntax.75_pitch breakpoints.04_example.maxpat", "bach.help.notation.syntax.80_slots.01_intro.maxpat", "bach.help.notation.syntax.80_slots.02_slotnames.maxpat", "bach.help.notation.syntax.80_slots.03_content.maxpat", "bach.help.notation.syntax.80_slots.04_content2.maxpat", "bach.help.notation.syntax.80_slots.05_content3.maxpat", "bach.help.notation.syntax.80_slots.06_content4.maxpat", "bach.help.notation.syntax.85_articulations.maxpat", "bach.help.notation.syntax.90_notenames.maxpat", "bach.help.notation.voice properties.01_numvoices.maxpat", "bach.help.notation.voice properties.02_autosize.maxpat", "bach.help.notation.voice properties.03_clefs.maxpat", "bach.help.notation.voice properties.04_autoclefs.maxpat", "bach.help.notation.voice properties.10_names.maxpat", "bach.help.notation.voice properties.11_keys.maxpat", "bach.help.notation.voice properties.12_advancedkeys.maxpat", "bach.help.notation.voice properties.13_midichannels.maxpat", "bach.help.notation.voice properties.14_hide.maxpat", "bach.help.notation.voice properties.15_spacing.maxpat", "bach.help.notation.voice properties.16_stafflines.maxpat", "bach.help.search.maxpat", "bach.help.searchtag.maxpat", "bach.help.welcome.maxpat", "bach.histo.maxhelp", "bach.hypercomment.maxhelp", "bach.idmatrix.maxhelp", "bach.idvector.maxhelp", "bach.ifunc.maxhelp", "bach.im.maxhelp", "bach.insert.maxhelp", "bach.integrate.maxhelp", "bach.interp.maxhelp", "bach.intersection.maxhelp", "bach.inv.maxhelp", "bach.is.maxhelp", "bach.istruct.maxhelp", "bach.iter.maxhelp", "bach.ivec.maxhelp", "bach.ker.maxhelp", "bach.keychain.maxhelp", "bach.keys.maxhelp", "bach.kurtosis.maxhelp", "bach.lace.maxhelp", "bach.lcm.maxhelp", "bach.length.maxhelp", "bach.leq.maxhelp", "bach.linearsolve.maxhelp", "bach.llll2dict.maxhelp", "bach.locate.maxhelp", "bach.lookup.maxhelp", "bach.lt.maxhelp", "bach.m2jitcellblock.maxhelp", "bach.m2matrixctrl.maxhelp", "bach.mapchord.maxhelp", "bach.mapelem.maxhelp", "bach.matrixctrl2m.maxhelp", "bach.maximum.maxhelp", "bach.mc2f.maxhelp", "bach.mc2n.maxhelp", "bach.mc2pc.maxhelp", "bach.mc2r.maxhelp", "bach.mcapprox.maxhelp", "bach.mean.maxhelp", "bach.median.maxhelp", "bach.minfo.maxhelp", "bach.minimum.maxhelp", "bach.minmax.maxhelp", "bach.mod+.maxhelp", "bach.mod-.maxhelp", "bach.mod.maxhelp", "bach.mode.maxhelp", "bach.modtimes.maxhelp", "bach.mono.maxhelp", "bach.mpow.maxhelp", "bach.mrandom.maxhelp", "bach.mtimes.maxhelp", "bach.n2mc.maxhelp", "bach.nearest.maxhelp", "bach.neq.maxhelp", "bach.neuralnet.maxhelp", "bach.norm.maxhelp", "bach.normalize.maxhelp", "bach.nth.maxhelp", "bach.omtree2bachtree.maxhelp", "bach.pack.maxhelp", "bach.pad.maxhelp", "bach.partition.maxhelp", "bach.path2llll.maxhelp", "bach.pc2mc.maxhelp", "bach.pcsetinfo.maxhelp", "bach.period.maxhelp", "bach.perm.maxhelp", "bach.pick.maxhelp", "bach.pipe.maxhelp", "bach.poltocar.maxhelp", "bach.portal.maxhelp", "bach.poset.maxhelp", "bach.post.maxhelp", "bach.pow.maxhelp", "bach.prepend.maxhelp", "bach.prime.maxhelp", "bach.primeform.maxhelp", "bach.primeser.maxhelp", "bach.print.maxhelp", "bach.prod.maxhelp", "bach.pv.maxhelp", "bach.quantiles.maxhelp", "bach.quantize.maxhelp", "bach.r2mc.maxhelp", "bach.random.maxhelp", "bach.randomdrip.maxhelp", "bach.rank.maxhelp", "bach.ratnum.maxhelp", "bach.rdiv.maxhelp", "bach.read.maxhelp", "bach.readsdif.maxhelp", "bach.reduce.maxhelp", "bach.reducefunction.maxhelp", "bach.reg.maxhelp", "bach.repeat.maxhelp", "bach.replace.maxhelp", "bach.reshape.maxhelp", "bach.restrot.maxhelp", "bach.rev.maxhelp", "bach.rminus.maxhelp", "bach.roll.maxhelp", "bach.rot.maxhelp", "bach.round.maxhelp", "bach.scale.maxhelp", "bach.score.maxhelp", "bach.score2roll.maxhelp", "bach.scramble.maxhelp", "bach.shelf.maxhelp", "bach.sieve.maxhelp", "bach.skewness.maxhelp", "bach.slice.maxhelp", "bach.sliceheader.maxhelp", "bach.slot.maxhelp", "bach.slot2curve.maxhelp", "bach.slot2filtercoeff.maxhelp", "bach.slot2function.maxhelp", "bach.slot2line.maxhelp", "bach.sort.maxhelp", "bach.split.maxhelp", "bach.stdev.maxhelp", "bach.step.maxhelp", "bach.stream.maxhelp", "bach.submatrix.maxhelp", "bach.subs.maxhelp", "bach.sum.maxhelp", "bach.swap.maxhelp", "bach.symdiff.maxhelp", "bach.thin.maxhelp", "bach.tierev.maxhelp", "bach.times.maxhelp", "bach.toc&r.maxhelp", "bach.tonnetz.maxhelp", "bach.trace.maxhelp", "bach.trans.maxhelp", "bach.transcribe.maxhelp", "bach.tree.maxhelp", "bach.union.maxhelp", "bach.unpacknote.maxhelp", "bach.urn.maxhelp", "bach.value.maxhelp", "bach.variance.maxhelp", "bach.weights.maxhelp", "bach.wellshape.maxhelp", "bach.wordcloud.maxhelp", "bach.wrandom.maxhelp", "bach.wrap.maxhelp", "bach.write.maxhelp", "bach.writesdif.maxhelp", "bach.wurn.maxhelp", "bach.x2dx.maxhelp", "bach.zsearch.maxhelp" ],
		"interfaces" : [ "bach-obj-qlookup.json", "max.db.json" ],
		"media" : [ "alice.txt", "Bach Invention.xml", "bach.circle.svg", "bach.graph.svg", "bach.hypercomment.svg", "bach.ratnum.svg", "bach.roll.svg", "bach.score.svg", "bach.slot.svg", "bach.tonnetz.svg", "bach.tree.svg", "bach.wordcloud.svg", "byrd_ptrack.sdif", "example.llll", "example.txt", "freddie.json", "goldberg3.mid", "goldberg3.mp3", "goldberg3_barlinemodif.mid", "jedi.json", "Microton.ttf", "Real Time Stories (g) - bach.mid", "rollexample.txt", "sample_test1.aif", "sample_test2.aif", "sample_test3.aif", "Slot Machines - sample1.aif", "Slot Machines - sample2.aif", "Slot Machines - sample3.aif", "test.llll", "Yester.xml" ],
		"docs" : [ "_c74_common.css", "_c74_common.xml", "_c74_common.xsl", "_c74_compat.html", "_c74_platform.xsl", "refpages/_c74_ref_common.xsl", "refpages/_c74_ref_modules.xml", "refpages/bach_ref/_c74_contents.xml", "refpages/bach_ref/_c74_ref.xsl", "refpages/bach_ref/bach.+.maxref.xml", "refpages/bach_ref/bach.-.maxref.xml", "refpages/bach_ref/bach.abs.maxref.xml", "refpages/bach_ref/bach.adj.maxref.xml", "refpages/bach_ref/bach.append.maxref.xml", "refpages/bach_ref/bach.args.maxref.xml", "refpages/bach_ref/bach.arithmser.maxref.xml", "refpages/bach_ref/bach.autoscale.maxref.xml", "refpages/bach_ref/bach.bachtree2omtree.maxref.xml", "refpages/bach_ref/bach.beatbox.maxref.xml", "refpages/bach_ref/bach.beatunbox.maxref.xml", "refpages/bach_ref/bach.belong.maxref.xml", "refpages/bach_ref/bach.bin.maxref.xml", "refpages/bach_ref/bach.bitdecode.maxref.xml", "refpages/bach_ref/bach.cartesianprod.maxref.xml", "refpages/bach_ref/bach.cartopol.maxref.xml", "refpages/bach_ref/bach.change.maxref.xml", "refpages/bach_ref/bach.chordrev.maxref.xml", "refpages/bach_ref/bach.chordrot.maxref.xml", "refpages/bach_ref/bach.circle.maxref.xml", "refpages/bach_ref/bach.clip.maxref.xml", "refpages/bach_ref/bach.collect.maxref.xml", "refpages/bach_ref/bach.comb.maxref.xml", "refpages/bach_ref/bach.combinevoices.maxref.xml", "refpages/bach_ref/bach.compl.maxref.xml", "refpages/bach_ref/bach.constraints.maxref.xml", "refpages/bach_ref/bach.contains.maxref.xml", "refpages/bach_ref/bach.convertbase.maxref.xml", "refpages/bach_ref/bach.coprime.maxref.xml", "refpages/bach_ref/bach.coprimeser.maxref.xml", "refpages/bach_ref/bach.counter.maxref.xml", "refpages/bach_ref/bach.cross.maxref.xml", "refpages/bach_ref/bach.defer.maxref.xml", "refpages/bach_ref/bach.deferlow.maxref.xml", "refpages/bach_ref/bach.delace.maxref.xml", "refpages/bach_ref/bach.depth.maxref.xml", "refpages/bach_ref/bach.derive.maxref.xml", "refpages/bach_ref/bach.det.maxref.xml", "refpages/bach_ref/bach.diag.maxref.xml", "refpages/bach_ref/bach.dict2llll.maxref.xml", "refpages/bach_ref/bach.diff.maxref.xml", "refpages/bach_ref/bach.div.maxref.xml", "refpages/bach_ref/bach.divisors.maxref.xml", "refpages/bach_ref/bach.dl2curve.maxref.xml", "refpages/bach_ref/bach.dl2line.maxref.xml", "refpages/bach_ref/bach.drip.maxref.xml", "refpages/bach_ref/bach.dsort.maxref.xml", "refpages/bach_ref/bach.dx2x.maxref.xml", "refpages/bach_ref/bach.eig.maxref.xml", "refpages/bach_ref/bach.eq.maxref.xml", "refpages/bach_ref/bach.expr.maxref.xml", "refpages/bach_ref/bach.extractbasis.maxref.xml", "refpages/bach_ref/bach.ezmidiplay.maxref.xml", "refpages/bach_ref/bach.f2mc.maxref.xml", "refpages/bach_ref/bach.fact.maxref.xml", "refpages/bach_ref/bach.factorize.maxref.xml", "refpages/bach_ref/bach.fft.maxref.xml", "refpages/bach_ref/bach.filter.maxref.xml", "refpages/bach_ref/bach.filternull.maxref.xml", "refpages/bach_ref/bach.find.maxref.xml", "refpages/bach_ref/bach.flat.maxref.xml", "refpages/bach_ref/bach.float2rat.maxref.xml", "refpages/bach_ref/bach.fromc&r.maxref.xml", "refpages/bach_ref/bach.funnel.maxref.xml", "refpages/bach_ref/bach.gausselim.maxref.xml", "refpages/bach_ref/bach.gcd.maxref.xml", "refpages/bach_ref/bach.geomser.maxref.xml", "refpages/bach_ref/bach.geq.maxref.xml", "refpages/bach_ref/bach.getcol.maxref.xml", "refpages/bach_ref/bach.getrow.maxref.xml", "refpages/bach_ref/bach.graph.maxref.xml", "refpages/bach_ref/bach.group.maxref.xml", "refpages/bach_ref/bach.gt.maxref.xml", "refpages/bach_ref/bach.histo.maxref.xml", "refpages/bach_ref/bach.hypercomment.maxref.xml", "refpages/bach_ref/bach.idmatrix.maxref.xml", "refpages/bach_ref/bach.idvector.maxref.xml", "refpages/bach_ref/bach.ifunc.maxref.xml", "refpages/bach_ref/bach.im.maxref.xml", "refpages/bach_ref/bach.insert.maxref.xml", "refpages/bach_ref/bach.integrate.maxref.xml", "refpages/bach_ref/bach.interp.maxref.xml", "refpages/bach_ref/bach.intersection.maxref.xml", "refpages/bach_ref/bach.inv.maxref.xml", "refpages/bach_ref/bach.is.maxref.xml", "refpages/bach_ref/bach.istruct.maxref.xml", "refpages/bach_ref/bach.iter.maxref.xml", "refpages/bach_ref/bach.ivec.maxref.xml", "refpages/bach_ref/bach.ker.maxref.xml", "refpages/bach_ref/bach.keychain.maxref.xml", "refpages/bach_ref/bach.keys.maxref.xml", "refpages/bach_ref/bach.kurtosis.maxref.xml", "refpages/bach_ref/bach.lace.maxref.xml", "refpages/bach_ref/bach.lcm.maxref.xml", "refpages/bach_ref/bach.length.maxref.xml", "refpages/bach_ref/bach.leq.maxref.xml", "refpages/bach_ref/bach.life.maxref.xml", "refpages/bach_ref/bach.linearsolve.maxref.xml", "refpages/bach_ref/bach.llll2dict.maxref.xml", "refpages/bach_ref/bach.locate.maxref.xml", "refpages/bach_ref/bach.lookup.maxref.xml", "refpages/bach_ref/bach.lt.maxref.xml", "refpages/bach_ref/bach.m2jitcellblock.maxref.xml", "refpages/bach_ref/bach.m2matrixctrl.maxref.xml", "refpages/bach_ref/bach.mapchord.maxref.xml", "refpages/bach_ref/bach.mapelem.maxref.xml", "refpages/bach_ref/bach.matrixctrl2m.maxref.xml", "refpages/bach_ref/bach.maximum.maxref.xml", "refpages/bach_ref/bach.mc2f.maxref.xml", "refpages/bach_ref/bach.mc2n.maxref.xml", "refpages/bach_ref/bach.mc2pc.maxref.xml", "refpages/bach_ref/bach.mc2r.maxref.xml", "refpages/bach_ref/bach.mcapprox.maxref.xml", "refpages/bach_ref/bach.mean.maxref.xml", "refpages/bach_ref/bach.median.maxref.xml", "refpages/bach_ref/bach.minfo.maxref.xml", "refpages/bach_ref/bach.minimum.maxref.xml", "refpages/bach_ref/bach.minmax.maxref.xml", "refpages/bach_ref/bach.mod+.maxref.xml", "refpages/bach_ref/bach.mod-.maxref.xml", "refpages/bach_ref/bach.mod.maxref.xml", "refpages/bach_ref/bach.mode.maxref.xml", "refpages/bach_ref/bach.modtimes.maxref.xml", "refpages/bach_ref/bach.mono.maxref.xml", "refpages/bach_ref/bach.mpow.maxref.xml", "refpages/bach_ref/bach.mrandom.maxref.xml", "refpages/bach_ref/bach.mtimes.maxref.xml", "refpages/bach_ref/bach.n2mc.maxref.xml", "refpages/bach_ref/bach.nearest.maxref.xml", "refpages/bach_ref/bach.neq.maxref.xml", "refpages/bach_ref/bach.neuralnet.maxref.xml", "refpages/bach_ref/bach.norm.maxref.xml", "refpages/bach_ref/bach.normalize.maxref.xml", "refpages/bach_ref/bach.nth.maxref.xml", "refpages/bach_ref/bach.omtree2bachtree.maxref.xml", "refpages/bach_ref/bach.pack.maxref.xml", "refpages/bach_ref/bach.pad.maxref.xml", "refpages/bach_ref/bach.partition.maxref.xml", "refpages/bach_ref/bach.path2llll.maxref.xml", "refpages/bach_ref/bach.pc2mc.maxref.xml", "refpages/bach_ref/bach.pcsetinfo.maxref.xml", "refpages/bach_ref/bach.period.maxref.xml", "refpages/bach_ref/bach.perm.maxref.xml", "refpages/bach_ref/bach.pick.maxref.xml", "refpages/bach_ref/bach.pipe.maxref.xml", "refpages/bach_ref/bach.poltocar.maxref.xml", "refpages/bach_ref/bach.portal.maxref.xml", "refpages/bach_ref/bach.poset.maxref.xml", "refpages/bach_ref/bach.post.maxref.xml", "refpages/bach_ref/bach.pow.maxref.xml", "refpages/bach_ref/bach.prepend.maxref.xml", "refpages/bach_ref/bach.prime.maxref.xml", "refpages/bach_ref/bach.primeform.maxref.xml", "refpages/bach_ref/bach.primeser.maxref.xml", "refpages/bach_ref/bach.print.maxref.xml", "refpages/bach_ref/bach.prod.maxref.xml", "refpages/bach_ref/bach.pv.maxref.xml", "refpages/bach_ref/bach.quantiles.maxref.xml", "refpages/bach_ref/bach.quantize.maxref.xml", "refpages/bach_ref/bach.r2mc.maxref.xml", "refpages/bach_ref/bach.random.maxref.xml", "refpages/bach_ref/bach.randomdrip.maxref.xml", "refpages/bach_ref/bach.rank.maxref.xml", "refpages/bach_ref/bach.ratnum.maxref.xml", "refpages/bach_ref/bach.rdiv.maxref.xml", "refpages/bach_ref/bach.read.maxref.xml", "refpages/bach_ref/bach.readsdif.maxref.xml", "refpages/bach_ref/bach.reduce.maxref.xml", "refpages/bach_ref/bach.reducefunction.maxref.xml", "refpages/bach_ref/bach.reg.maxref.xml", "refpages/bach_ref/bach.repeat.maxref.xml", "refpages/bach_ref/bach.replace.maxref.xml", "refpages/bach_ref/bach.reshape.maxref.xml", "refpages/bach_ref/bach.restrot.maxref.xml", "refpages/bach_ref/bach.rev.maxref.xml", "refpages/bach_ref/bach.rminus.maxref.xml", "refpages/bach_ref/bach.roll.maxref.xml", "refpages/bach_ref/bach.rot.maxref.xml", "refpages/bach_ref/bach.round.maxref.xml", "refpages/bach_ref/bach.scale.maxref.xml", "refpages/bach_ref/bach.score.maxref.xml", "refpages/bach_ref/bach.score2roll.maxref.xml", "refpages/bach_ref/bach.scramble.maxref.xml", "refpages/bach_ref/bach.shelf.maxref.xml", "refpages/bach_ref/bach.sieve.maxref.xml", "refpages/bach_ref/bach.skewness.maxref.xml", "refpages/bach_ref/bach.slice.maxref.xml", "refpages/bach_ref/bach.sliceheader.maxref.xml", "refpages/bach_ref/bach.slot.maxref.xml", "refpages/bach_ref/bach.slot2curve.maxref.xml", "refpages/bach_ref/bach.slot2filtercoeff.maxref.xml", "refpages/bach_ref/bach.slot2function.maxref.xml", "refpages/bach_ref/bach.slot2line.maxref.xml", "refpages/bach_ref/bach.sort.maxref.xml", "refpages/bach_ref/bach.split.maxref.xml", "refpages/bach_ref/bach.stdev.maxref.xml", "refpages/bach_ref/bach.step.maxref.xml", "refpages/bach_ref/bach.stream.maxref.xml", "refpages/bach_ref/bach.submatrix.maxref.xml", "refpages/bach_ref/bach.subs.maxref.xml", "refpages/bach_ref/bach.sum.maxref.xml", "refpages/bach_ref/bach.swap.maxref.xml", "refpages/bach_ref/bach.symdiff.maxref.xml", "refpages/bach_ref/bach.thin.maxref.xml", "refpages/bach_ref/bach.tierev.maxref.xml", "refpages/bach_ref/bach.times.maxref.xml", "refpages/bach_ref/bach.toc&r.maxref.xml", "refpages/bach_ref/bach.tonnetz.maxref.xml", "refpages/bach_ref/bach.trace.maxref.xml", "refpages/bach_ref/bach.trans.maxref.xml", "refpages/bach_ref/bach.transcribe.maxref.xml", "refpages/bach_ref/bach.tree.maxref.xml", "refpages/bach_ref/bach.union.maxref.xml", "refpages/bach_ref/bach.unpacknote.maxref.xml", "refpages/bach_ref/bach.urn.maxref.xml", "refpages/bach_ref/bach.value.maxref.xml", "refpages/bach_ref/bach.variance.maxref.xml", "refpages/bach_ref/bach.weights.maxref.xml", "refpages/bach_ref/bach.wellshape.maxref.xml", "refpages/bach_ref/bach.wordcloud.maxref.xml", "refpages/bach_ref/bach.wrandom.maxref.xml", "refpages/bach_ref/bach.wrap.maxref.xml", "refpages/bach_ref/bach.write.maxref.xml", "refpages/bach_ref/bach.writesdif.maxref.xml", "refpages/bach_ref/bach.wurn.maxref.xml", "refpages/bach_ref/bach.x2dx.maxref.xml", "refpages/bach_ref/bach.young.maxref.xml", "refpages/bach_ref/bach.zsearch.maxref.xml", "tutorial-patchers/A Mazing Grace (a).maxpat", "tutorial-patchers/A Mazing Grace (b).maxpat", "tutorial-patchers/A Mazing Grace (c).maxpat", "tutorial-patchers/A Mazing Grace (d).maxpat", "tutorial-patchers/A Mazing Grace (e).maxpat", "tutorial-patchers/Abstract Thinking (a).maxpat", "tutorial-patchers/Abstract Thinking (b).maxpat", "tutorial-patchers/Abstract Thinking (c) - abstraction.maxpat", "tutorial-patchers/Abstract Thinking (c).maxpat", "tutorial-patchers/Abstract Thinking (d).maxpat", "tutorial-patchers/Beams Through The Trees (a).maxpat", "tutorial-patchers/Beams Through The Trees (b).maxpat", "tutorial-patchers/Beams Through The Trees (c).maxpat", "tutorial-patchers/Beams Through The Trees (d).maxpat", "tutorial-patchers/Beams Through The Trees (e).maxpat", "tutorial-patchers/Beams Through The Trees (f).maxpat", "tutorial-patchers/Beams Through The Trees (g).maxpat", "tutorial-patchers/Beams Through The Trees (h).maxpat", "tutorial-patchers/Beams Through The Trees (i).maxpat", "tutorial-patchers/Beams Through The Trees (j).maxpat", "tutorial-patchers/Beams Through The Trees (k).maxpat", "tutorial-patchers/Beams Through The Trees (l).maxpat", "tutorial-patchers/Beams Through The Trees (m).maxpat", "tutorial-patchers/Beams Through The Trees (n).maxpat", "tutorial-patchers/Beams Through The Trees (o).maxpat", "tutorial-patchers/Beams Through The Trees (p).maxpat", "tutorial-patchers/Beams Through The Trees (q).maxpat", "tutorial-patchers/Brother John (a).maxpat", "tutorial-patchers/Brother John (b).maxpat", "tutorial-patchers/Brother John (c).maxpat", "tutorial-patchers/Brother John (d).maxpat", "tutorial-patchers/Brother John (e).maxpat", "tutorial-patchers/Brother John (f).maxpat", "tutorial-patchers/Brother John (g).maxpat", "tutorial-patchers/Brother John (h).maxpat", "tutorial-patchers/Brother John (i).maxpat", "tutorial-patchers/Edit Path (a).maxpat", "tutorial-patchers/Edit Path (b).maxpat", "tutorial-patchers/Edit Path (c).maxpat", "tutorial-patchers/Edit Path (d).maxpat", "tutorial-patchers/Edit Path (e).maxpat", "tutorial-patchers/Edit Path (f).maxpat", "tutorial-patchers/Edit Path (g).maxpat", "tutorial-patchers/Filter Filter Little Star (a).maxpat", "tutorial-patchers/Filter Filter Little Star (b).maxpat", "tutorial-patchers/Filter Filter Little Star (c).maxpat", "tutorial-patchers/Filter Filter Little Star (d).maxpat", "tutorial-patchers/Filter Filter Little Star (e).maxpat", "tutorial-patchers/Filter Filter Little Star (f).maxpat", "tutorial-patchers/Filter Filter Little Star (g).maxpat", "tutorial-patchers/Filter Filter Little Star (h).maxpat", "tutorial-patchers/From OpenMusic to bach (a).maxpat", "tutorial-patchers/From OpenMusic to bach (b).maxpat", "tutorial-patchers/From OpenMusic to bach (c).maxpat", "tutorial-patchers/From OpenMusic to bach (d).maxpat", "tutorial-patchers/From OpenMusic to bach (e).maxpat", "tutorial-patchers/From OpenMusic to bach (f).maxpat", "tutorial-patchers/From OpenMusic to bach (g).maxpat", "tutorial-patchers/From OpenMusic to bach (h).maxpat", "tutorial-patchers/From OpenMusic to bach (i).maxpat", "tutorial-patchers/From OpenMusic to bach (j).maxpat", "tutorial-patchers/From OpenMusic to bach (k).maxpat", "tutorial-patchers/From OpenMusic to bach (l).maxpat", "tutorial-patchers/From OpenMusic to bach (m).maxpat", "tutorial-patchers/From OpenMusic to bach (n).maxpat", "tutorial-patchers/From OpenMusic to bach (o).maxpat", "tutorial-patchers/From OpenMusic to bach (p).maxpat", "tutorial-patchers/From OpenMusic to bach (q).maxpat", "tutorial-patchers/From OpenMusic to bach (r).maxpat", "tutorial-patchers/From OpenMusic to bach (s).maxpat", "tutorial-patchers/God Solve The Queens (a).maxpat", "tutorial-patchers/God Solve The Queens (b).maxpat", "tutorial-patchers/God Solve The Queens (c).maxpat", "tutorial-patchers/God Solve The Queens (d).maxpat", "tutorial-patchers/God Solve The Queens (e).maxpat", "tutorial-patchers/God Solve The Queens (f).maxpat", "tutorial-patchers/God Solve The Queens (g).maxpat", "tutorial-patchers/God Solve The Queens (h).maxpat", "tutorial-patchers/God Solve The Queens (i).maxpat", "tutorial-patchers/God Solve The Queens (j).maxpat", "tutorial-patchers/God Solve The Queens (k).maxpat", "tutorial-patchers/God Solve The Queens (l).maxpat", "tutorial-patchers/God Solve The Queens (m).maxpat", "tutorial-patchers/Graphical Synchronization (a).maxpat", "tutorial-patchers/Graphical Synchronization (b) - bpatcher.maxpat", "tutorial-patchers/Graphical Synchronization (b).maxpat", "tutorial-patchers/Graphical Synchronization (c) - bpatcher.maxpat", "tutorial-patchers/Graphical Synchronization (c).maxpat", "tutorial-patchers/Graphical Synchronization (d).maxpat", "tutorial-patchers/Graphical Synchronization (e) - bpatcher.maxpat", "tutorial-patchers/Graphical Synchronization (e).maxpat", "tutorial-patchers/Graphical Synchronization (f) - bpatcher.maxpat", "tutorial-patchers/Graphical Synchronization (f).maxpat", "tutorial-patchers/Hello World (a).maxpat", "tutorial-patchers/Hello World (b).maxpat", "tutorial-patchers/Hello World (c).maxpat", "tutorial-patchers/Hello World (d).maxpat", "tutorial-patchers/Hello World (e).maxpat", "tutorial-patchers/Hello World (f).maxpat", "tutorial-patchers/Hello World (g).maxpat", "tutorial-patchers/Hello World (h).maxpat", "tutorial-patchers/Hello World (i).maxpat", "tutorial-patchers/Hello World (j).maxpat", "tutorial-patchers/Hello World (k).maxpat", "tutorial-patchers/Hello World (l).maxpat", "tutorial-patchers/Inspector As A Gadget (a).maxpat", "tutorial-patchers/Inspector As A Gadget (b).maxpat", "tutorial-patchers/Inspector As A Gadget (c).maxpat", "tutorial-patchers/Into The Matrix (a).maxpat", "tutorial-patchers/Into The Matrix (b).maxpat", "tutorial-patchers/Into The Matrix (c).maxpat", "tutorial-patchers/Into The Matrix (d).maxpat", "tutorial-patchers/Into The Matrix (e).maxpat", "tutorial-patchers/Into The Matrix (f).maxpat", "tutorial-patchers/Into The Matrix (g).maxpat", "tutorial-patchers/Into The Matrix (h).maxpat", "tutorial-patchers/Into The Matrix (i).maxpat", "tutorial-patchers/Into The Matrix (j).maxpat", "tutorial-patchers/Into The Matrix (k).maxpat", "tutorial-patchers/Into The Matrix (l).maxpat", "tutorial-patchers/Into The Matrix (m).maxpat", "tutorial-patchers/Into The Matrix (n).maxpat", "tutorial-patchers/Into The Matrix (o).maxpat", "tutorial-patchers/Into The Matrix (p).maxpat", "tutorial-patchers/Into The Matrix (q).maxpat", "tutorial-patchers/Iterations (a).maxpat", "tutorial-patchers/Iterations (b).maxpat", "tutorial-patchers/Iterations (c).maxpat", "tutorial-patchers/Iterations (d).maxpat", "tutorial-patchers/Iterations (e).maxpat", "tutorial-patchers/Iterations (f).maxpat", "tutorial-patchers/Iterations (g).maxpat", "tutorial-patchers/Iterations (h).maxpat", "tutorial-patchers/Iterations (i).maxpat", "tutorial-patchers/Iterations (j).maxpat", "tutorial-patchers/Iterations (k).maxpat", "tutorial-patchers/Iterations (l).maxpat", "tutorial-patchers/Iterations (m).maxpat", "tutorial-patchers/Iterations (n).maxpat", "tutorial-patchers/Iterations (o).maxpat", "tutorial-patchers/Iterations (p).maxpat", "tutorial-patchers/Iterations (q).maxpat", "tutorial-patchers/Iterations (r).maxpat", "tutorial-patchers/Iterations (s).maxpat", "tutorial-patchers/Iterations (t).maxpat", "tutorial-patchers/Iterations (u).maxpat", "tutorial-patchers/Iterations (v).maxpat", "tutorial-patchers/Iterations (w).maxpat", "tutorial-patchers/Lambda Scores (a).maxpat", "tutorial-patchers/Lambda Scores (b).maxpat", "tutorial-patchers/Lambda Scores (c).maxpat", "tutorial-patchers/Lambda Scores (d).maxpat", "tutorial-patchers/Lambda Scores (e).maxpat", "tutorial-patchers/Lambda Scores (f).maxpat", "tutorial-patchers/Lambda Scores (g).maxpat", "tutorial-patchers/Lambda Scores (h).maxpat", "tutorial-patchers/Lambda Scores (i).maxpat", "tutorial-patchers/linksections.maxpat", "tutorial-patchers/Real Time Stories (a).maxpat", "tutorial-patchers/Real Time Stories (b).maxpat", "tutorial-patchers/Real Time Stories (c).maxpat", "tutorial-patchers/Real Time Stories (d).maxpat", "tutorial-patchers/Real Time Stories (e).maxpat", "tutorial-patchers/Real Time Stories (f).maxpat", "tutorial-patchers/Real Time Stories (g).maxpat", "tutorial-patchers/Real Time Stories (h).maxpat", "tutorial-patchers/Real Time Stories (i).maxpat", "tutorial-patchers/Real Time Stories (j).maxpat", "tutorial-patchers/Real Time Stories (k).maxpat", "tutorial-patchers/Real Time Stories (l).maxpat", "tutorial-patchers/Real Time Stories (m).maxpat", "tutorial-patchers/Real Time Stories (n).maxpat", "tutorial-patchers/Real Time Stories (o).maxpat", "tutorial-patchers/Real Time Stories (p).maxpat", "tutorial-patchers/Slot Machines (a).maxpat", "tutorial-patchers/Slot Machines (b).maxpat", "tutorial-patchers/Slot Machines (c).maxpat", "tutorial-patchers/Slot Machines (d).maxpat", "tutorial-patchers/Slot Machines (e).maxpat", "tutorial-patchers/Slot Machines (f).maxpat", "tutorial-patchers/Slot Machines (g) - poly.maxpat", "tutorial-patchers/Slot Machines (g).maxpat", "tutorial-patchers/Slot Machines (h) - poly.maxpat", "tutorial-patchers/Slot Machines (h).maxpat", "tutorial-patchers/Slot Machines (i).maxpat", "tutorial-patchers/Slot Machines (j).maxpat", "tutorial-patchers/Slot Machines (k).maxpat", "tutorial-patchers/Slot Machines (l) - poly.maxpat", "tutorial-patchers/Slot Machines (l).maxpat", "tutorial-patchers/Slot Machines (m).maxpat", "tutorial-patchers/Slot Machines (n).maxpat", "tutorial-patchers/Slot Machines (o).maxpat", "tutorial-patchers/Slot Machines (p) - poly.maxpat", "tutorial-patchers/Slot Machines (p).maxpat", "tutorial-patchers/Slot Machines (q).maxpat", "tutorial-patchers/Slot Machines (r).maxpat", "tutorial-patchers/Slot Machines (s).maxpat", "tutorial-patchers/Slot Machines (t).maxpat", "tutorial-patchers/Slot Machines (u).maxpat", "tutorial-patchers/Slot Machines (v).maxpat", "tutorial-patchers/Slot Machines (w).maxpat", "tutorial-patchers/Slot Machines (x).maxpat", "tutorial-patchers/The Gift of Synthesis (a).maxpat", "tutorial-patchers/The Gift of Synthesis (b).maxpat", "tutorial-patchers/The Gift Of Synthesis (c) - poly.maxpat", "tutorial-patchers/The Gift Of Synthesis (c).maxpat", "tutorial-patchers/The Gift Of Synthesis (d) - poly.maxpat", "tutorial-patchers/The Gift Of Synthesis (d).maxpat", "tutorial-patchers/The Gift Of Synthesis (e) - poly.maxpat", "tutorial-patchers/The Gift Of Synthesis (e).maxpat", "tutorial-patchers/The Gift Of Synthesis (f).maxpat", "tutorial-patchers/The Minimal Way (a).maxpat", "tutorial-patchers/The Minimal Way (b).maxpat", "tutorial-patchers/The Minimal Way (c).maxpat", "tutorial-patchers/The Minimal Way (d).maxpat", "tutorial-patchers/The Minimal Way (e).maxpat", "tutorial-patchers/The Minimal Way (f).maxpat", "tutorial-patchers/The World Outside (a).maxpat", "tutorial-patchers/The World Outside (b).maxpat", "tutorial-patchers/The World Outside (c).maxpat", "tutorial-patchers/The World Outside (d).maxpat", "tutorial-patchers/The World Outside (e).maxpat", "tutorial-patchers/The World Outside (f).maxpat", "tutorial-patchers/The World Outside (g).maxpat", "tutorial-patchers/The World Outside (h).maxpat", "tutorial-patchers/The World Outside (i).maxpat", "tutorial-patchers/The World Outside (j).maxpat", "tutorial-patchers/The World Outside (k).maxpat", "tutorial-patchers/Through The Looking Glass (a).maxpat", "tutorial-patchers/Through The Looking Glass (b).maxpat", "tutorial-patchers/Through The Looking Glass (c).maxpat", "tutorial-patchers/Through The Looking Glass (d).maxpat", "tutorial-patchers/Through The Looking Glass (e).maxpat", "tutorial-patchers/Through The Looking Glass (f).maxpat", "tutorial-patchers/Through The Looking Glass (g).maxpat", "tutorial-patchers/Through The Looking Glass (h).maxpat", "tutorial-patchers/Through The Looking Glass (i).maxpat", "tutorial-patchers/Through The Looking Glass (j).maxpat", "tutorial-patchers/Through The Looking Glass (k).maxpat", "tutorial-patchers/Through The Looking Glass (l).maxpat", "tutorial-patchers/Through The Looking Glass (m).maxpat", "tutorial-patchers/Through The Looking Glass (n).maxpat", "tutorial-patchers/Through The Looking Glass (o).maxpat", "tutorial-patchers/Through The Looking Glass (p).maxpat", "tutorials/_c74_tut_common.xsl", "tutorials/bach-tut/00-bachindex.maxtut.xml", "tutorials/bach-tut/01-Hello World.maxtut.xml", "tutorials/bach-tut/02-Brother John.maxtut.xml", "tutorials/bach-tut/03-Iterations.maxtut.xml", "tutorials/bach-tut/04-Through The Looking Glass.maxtut.xml", "tutorials/bach-tut/05-Slot Machines.maxtut.xml", "tutorials/bach-tut/06-The Gift Of Synthesis.maxtut.xml", "tutorials/bach-tut/07-Inspector As A Gadget.maxtut.xml", "tutorials/bach-tut/08-Real Time Stories.maxtut.xml", "tutorials/bach-tut/09-The Minimal Way.maxtut.xml", "tutorials/bach-tut/10-The World Outside.maxtut.xml", "tutorials/bach-tut/11-From OpenMusic to bach.maxtut.xml", "tutorials/bach-tut/12-Abstract Thinking.maxtut.xml", "tutorials/bach-tut/13-Beams Through The Trees.maxtut.xml", "tutorials/bach-tut/14-A Mazing Grace.maxtut.xml", "tutorials/bach-tut/15-God Solve The Queens.maxtut.xml", "tutorials/bach-tut/16-Into The Matrix.maxtut.xml", "tutorials/bach-tut/17-Lambda Scores.maxtut.xml", "tutorials/bach-tut/18-Graphical Synchronization.maxtut.xml", "tutorials/bach-tut/19-Filter Filter Little Star.maxtut.xml", "tutorials/bach-tut/20-Edit Path.maxtut.xml", "tutorials/bach-tut/_c74_tut.xsl", "tutorials/bach-tut/bach.tutorials.json", "tutorials/bach-tut/tzeropage.html", "tutorials/bach-tut/tzeropage.js" ],
		"extras" : [ "bach.overview.maxpat" ]
	}
,
	"c74install" : 1,
	"installdate" : 3565266774
}
